…
    ##   danceability = col_double(),
    ##   duration_ms = col_double(),
    ##   energy = col_double(),
    ##   instrumentalness = col_double(),
    ##   key = col_character(),
    ##   liveness = col_double(),
    ##   loudness = col_double(),
    ##   mode = col_character(),
    ##   speechiness = col_double(),
    ##   tempo = col_double(),
    ##   time_signature = col_character(),
    ##   valence = col_double()
    ## )

    ## # A tibble: 5,000 x 18
    ##    genre artist_name track_name track_id popularity acousticness
    ##    <chr> <chr>       <chr>      <chr>         <dbl>        <dbl>
    ##  1 Dance Lostboycrow Verona     2DRfWdO…         50      0.196  
    ##  2 Dance JP Cooper   Wait       3hqJFkx…         68      0.192  
    ##  3 Ska   The Aquaba… Dear Spike 25TYdzF…         22      0.0888 
    ##  4 R&B   Sampha      What Shou… 7gDc8hQ…         48      0.922  
    ##  5 Movie Riders In … Cowpoke    5JMJdZg…          2      0.876  
    ##  6 Rock  The Growle… Big Toe    7qHBtTd…         49      0.0102 
    ##  7 Dance Lizzo       Jang a La… 3s3tKXk…         42      0.00365
    ##  8 Opera Léo Delibes Sylvia ou… 2KpiSeb…         10      0.942  
    ##  9 Clas… Michael Ha… Concertin… 1wnnXK7…         30      0.974  
    ## 10 Dance Calvin Har… Promises … 3Lv3frZ…         68      0.186  
    ## # … with 4,990 more rows, and 12 more variables: danceability <dbl>,
    ## #   duration_ms <dbl>, energy <dbl>, instrumentalness <dbl>, key <chr>,
    ## #   liveness <dbl>, loudness <dbl>, mode <chr>, speechiness <dbl>,
    ## #   tempo <dbl>, time_signature <chr>, valence <dbl>
…
Average population scores by genre:

    ## # A tibble: 26 x 2
    ##    genre            average
    ##    <chr>              <dbl>
    ##  1 Pop                 67.1
    ##  2 Rap                 60.9
    ##  3 Rock                58.9
    ##  4 Hip-Hop             58.3
    ##  5 Dance               55.7
    ##  6 Anime               55.2
    ##  7 Alternative         54.5
    ##  8 Children’s Music    54.5
    ##  9 Blues               54.4
    ## 10 Indie               54.3
    ## # … with 16 more rows
…
