…
### Visualization

Relationship Between Different Variables and Song Popularity

    ## # A tibble: 26 x 2
    ##    genre            medianpop
    ##    <chr>                <dbl>
    ##  1 Pop                     66
    ##  2 Rap                     60
    ##  3 Rock                    58
    ##  4 Dance                   57
    ##  5 Hip-Hop                 57
    ##  6 Alternative             54
    ##  7 Anime                   54
    ##  8 Blues                   54
    ##  9 Children’s Music        54
    ## 10 Indie                   54
    ## # … with 16 more rows
…
